{
  "organization-name": "Google Inc.",
  "date-range": {
    "start-datetime": "2022-04-26T00:00:00Z",
    "end-datetime": "2022-04-26T23:59:59Z"
  },
  "contact-info": "smtp-tls-reporting@google.com",
  "report-id": "2022-04-26T00:00:00Z_doraji.xyz",
  "policies": [
    {
      "policy": {
        "policy-type": "sts",
        "policy-string": [
          "version: STSv1",
          "mode: testing",
          "mx: yw-0919.doraji.xyz",
          "mx: yw-1204.doraji.xyz",
          "max_age: 1209600"
        ],
        "policy-domain": "doraji.xyz"
      },
      "summary": {
        "total-successful-session-count": 13,
        "total-failure-session-count": 0
      }
    }
  ]
}
